<?xml version="1.0" encoding="utf-8"?>
<!-- Generator: Adobe Illustrator 22.0.1, SVG Export Plug-In . SVG Version: 6.00 Build 0)  -->
<svg version="1.1" id="Layer_1" xmlns="http://www.w3.org/2000/svg" xmlns:xlink="http://www.w3.org/1999/xlink" x="0px" y="0px"
	 viewBox="0 0 72 72" style="enable-background:new 0 0 72 72;" xml:space="preserve">
<style type="text/css">
	.st0{fill:none;}
	.st1{fill:#3F1310;}
	.st2{fill:#1C4586;}
	.st3{fill:#C12126;}
	.st4{fill:#A8C238;}
	.st5{fill:#B2B3B3;}
	.st6{fill:#FFDE17;}
	.st7{fill:#010101;}
	.st8{fill:#F8B54D;}
	.st9{fill:#FFFFFF;}
	.st10{fill:#334B5E;}
	.st11{fill:#FFD15C;}
	.st12{fill:#F0EFEF;}
	.st13{fill:#E1E0E3;}
	.st14{fill:#499DD6;}
	.st15{fill:#457DC0;}
	.st16{fill:#FFDAA7;}
	.st17{fill:#FDC375;}
	.st18{fill:#A07952;}
	.st19{fill:#C7C5CC;}
	.st20{fill:#AFADB3;}
	.st21{fill:#8A6847;}
	.st22{fill:#58C2AE;}
	.st23{fill:#36BBA0;}
	.st24{fill:#D1D3D4;}
	.st25{fill:#939598;}
	.st26{fill:#56C0EA;}
	.st27{fill:#F3715B;}
	.st28{fill:#9D1D21;}
	.st29{fill:#2D368E;}
	.st30{fill:#0C72BA;}
	.st31{clip-path:url(#SVGID_10_);fill:#1C4586;}
	.st32{clip-path:url(#SVGID_12_);fill:#1C4586;}
</style>
<g>
	<g>
		<g>
			<path class="st11" d="M30,28.1c0,5.5-3.1,9.9-6.9,9.9s-6.9-4.4-6.9-9.9c0-3.3,1.1-6.2,2.8-8c1.2,1.2,2.7,2.4,4.4,3.4
				c2.2,1.4,4.5,2.3,6.5,2.9C29.9,27,30,27.5,30,28.1z"/>
			<g>
				<defs>
					<rect id="SVGID_9_" x="9" y="17.4" width="28.4" height="37.2"/>
				</defs>
				<clipPath id="SVGID_2_">
					<use xlink:href="#SVGID_9_"  style="overflow:visible;"/>
				</clipPath>
				<path style="clip-path:url(#SVGID_2_);fill:#1C4586;" d="M34.6,43.5c-0.3-0.7-0.9-1.1-1.6-1.3l-4.3-2l-2-1.7l-3.3,3.3h0l1.4,9.5
					c0,0,0,0.1,0,0.1l-1.5,2c0,0-0.1,0.1-0.1,0.1c0,0-0.1,0-0.1-0.1l-1.5-2c0,0,0-0.1,0-0.1l1.4-9.5h0l-3.3-3.3l-2,1.7l-4.3,2
					c-0.6,0.3-1.2,0.7-1.6,1.3c0,0-4.6,11-2.1,11h26.9C39.2,54.5,34.6,43.5,34.6,43.5L34.6,43.5z M34.6,43.5"/>
				<path style="clip-path:url(#SVGID_2_);fill:#1C4586;" d="M34.9,28.4c0.1,0,0.1,0,0.2-0.1c0,0,0.1-0.1,0.1-0.2
					c0-0.4-0.1-0.8-0.1-1.2l-0.1-0.9c0-0.1-0.1-0.2-0.3-0.2l-0.2,0l0-2.9l0.1,0l0.3-0.1c0.3-0.1,0.5-0.4,0.5-0.6
					c0-0.3-0.2-0.5-0.5-0.6l-11.4-4.1c-0.2-0.1-0.3-0.1-0.5,0l-11.4,4.1c-0.3,0.1-0.5,0.4-0.5,0.6c0,0.3,0.2,0.5,0.5,0.6l4.2,1.5
					c-0.3,0.9-0.4,2-0.4,3.2c0.1,6.8,4,10.9,7.7,10.9c3.6,0,7.6-4.1,7.7-10.9c0-1.2-0.1-2.2-0.4-3.1l3.1-1.1l0,2.5l-0.2,0
					c-0.1,0-0.2,0.1-0.3,0.2l-0.2,2.1c0,0.1,0,0.1,0.1,0.2c0,0,0.1,0.1,0.2,0.1 M23.1,36.8c-3.2,0-5.4-3.7-5.8-7.5
					c-0.4-3.5,4.6-3.6,4.9-1.5c0.1,0.7-0.7,1.4-0.6,1.6c0.4,1.3,7.4-4.4,7.4-0.2C28.9,32.3,26.1,36.8,23.1,36.8L23.1,36.8z
					 M23.1,36.8"/>
			</g>
		</g>
		<g>
			<path class="st11" d="M55.2,29.4c0,5.5-3.1,9.9-6.9,9.9s-6.9-4.4-6.9-9.9c0-3.3,1.1-6.2,2.8-8c1.2,1.2,2.7,2.4,4.4,3.4
				c2.2,1.4,4.5,2.3,6.5,2.9C55.2,28.3,55.2,28.9,55.2,29.4z"/>
			<g>
				<defs>
					<rect id="SVGID_11_" x="33.7" y="19.4" width="29.3" height="35.2"/>
				</defs>
				<clipPath id="SVGID_4_">
					<use xlink:href="#SVGID_11_"  style="overflow:visible;"/>
				</clipPath>
				<path style="clip-path:url(#SVGID_4_);fill:#1C4586;" d="M60.1,42.4c-0.3-0.7-1-1.1-1.6-1.4l-2.2-1c0-1.6,0-9.5,0-10.3
					c0-1.3-0.1-2.4-0.5-3.4l2.7-1l0,2.5h-0.2c-0.1,0-0.2,0.1-0.3,0.2L57.8,30c0,0.1,0,0.1,0.1,0.2c0,0,0.1,0.1,0.2,0.1l1.9,0
					c0.1,0,0.1,0,0.2-0.1c0,0,0.1-0.1,0.1-0.2c0-0.4-0.1-0.8-0.1-1.2L59.9,28c0-0.1-0.1-0.2-0.3-0.2h-0.2l0-2.8l0.1,0l0.3-0.1
					c0.3-0.1,0.4-0.4,0.4-0.6c0-0.3-0.2-0.5-0.4-0.6l-11.3-4.1c-0.1-0.1-0.3-0.1-0.5,0l-11.3,4.1c-0.3,0.1-0.4,0.4-0.4,0.6
					c0,0.3,0.2,0.5,0.4,0.6l4.1,1.5c-0.4,1-0.5,2.2-0.5,3.5l0,10.2l-2.2,1c-0.6,0.3-1.3,0.7-1.6,1.4c0,0-4.8,12.2-2.2,12.2h27.7
					C64.8,54.6,60.1,42.4,60.1,42.4L60.1,42.4z M52.7,41.3c0,0-3.6,1.2-4.3,5.4c0,0,0,0,0,0c-0.7-4.2-4.3-5.4-4.3-5.4l2.4-2.4
					c-3.4-1.5-4.2-6.6-4.2-6.6C42,31.6,42,31.1,42,31.1c1.7-0.1,7.5-0.6,7.9-2.5c0.6,1,3.5,3.6,4.7,3.8c0,0-1.1,5.1-4.3,6.6
					L52.7,41.3z M52.7,41.3"/>
			</g>
		</g>
	</g>
	<rect y="0" class="st0" width="72" height="72"/>
</g>
</svg>
