<?xml version="1.0" encoding="utf-8"?>
<!-- Generator: Adobe Illustrator 22.0.1, SVG Export Plug-In . SVG Version: 6.00 Build 0)  -->
<svg version="1.1" id="Layer_1" xmlns="http://www.w3.org/2000/svg" xmlns:xlink="http://www.w3.org/1999/xlink" x="0px" y="0px"
	 viewBox="0 0 72 72" style="enable-background:new 0 0 72 72;" xml:space="preserve">
<style type="text/css">
	.st0{fill:none;}
	.st1{fill:#3F1310;}
	.st2{fill:#1C4586;}
	.st3{fill:#C12126;}
	.st4{fill:#A8C238;}
	.st5{fill:#B2B3B3;}
	.st6{fill:#FFDE17;}
	.st7{fill:#010101;}
	.st8{fill:#F8B54D;}
	.st9{fill:#FFFFFF;}
	.st10{fill:#334B5E;}
	.st11{fill:#FFD15C;}
	.st12{fill:#F0EFEF;}
	.st13{fill:#E1E0E3;}
	.st14{fill:#499DD6;}
	.st15{fill:#457DC0;}
	.st16{fill:#FFDAA7;}
	.st17{fill:#FDC375;}
	.st18{fill:#A07952;}
	.st19{fill:#C7C5CC;}
	.st20{fill:#AFADB3;}
	.st21{fill:#8A6847;}
	.st22{fill:#58C2AE;}
	.st23{fill:#36BBA0;}
	.st24{fill:#D1D3D4;}
	.st25{fill:#939598;}
	.st26{fill:#56C0EA;}
	.st27{fill:#F3715B;}
	.st28{fill:#9D1D21;}
	.st29{fill:#2D368E;}
	.st30{fill:#0C72BA;}
	.st31{clip-path:url(#SVGID_10_);fill:#1C4586;}
	.st32{clip-path:url(#SVGID_12_);fill:#1C4586;}
</style>
<g>
	<rect y="0" class="st0" width="72" height="72"/>
	<g>
		<path id="SVGCleanerId_0_6_" class="st12" d="M51.6,62H20.4V39.9c0-5.3,4.3-9.7,9.7-9.7h11.8c5.3,0,9.7,4.3,9.7,9.7L51.6,62
			L51.6,62z"/>
		<g>
			<path id="SVGCleanerId_0_5_" class="st12" d="M51.6,62H20.4V39.9c0-5.3,4.3-9.7,9.7-9.7h11.8c5.3,0,9.7,4.3,9.7,9.7L51.6,62
				L51.6,62z"/>
		</g>
		<path class="st13" d="M47.3,40.5H24.7c-1.6,0-2.9,1.3-2.9,2.9V62h28.4V43.4C50.2,41.8,48.9,40.5,47.3,40.5z"/>
		<polygon class="st14" points="40.4,46.9 36.1,50.6 33.2,48.2 33.2,48.2 31.6,46.9 32.4,40.5 33.6,31.4 38.4,31.4 39.6,40.5 		"/>
		<polygon class="st15" points="40.4,46.9 36.1,50.6 33.2,48.2 33.2,48.2 31.6,46.9 32.4,40.5 39.6,40.5 		"/>
		<path class="st16" d="M47.3,21.3c0,0.4,0,0.8-0.1,1.2c-0.6,5.7-5.4,10.2-11.3,10.2c-5.9,0-10.8-4.6-11.3-10.4c0-0.3,0-0.6,0-1
			c0-0.6,0-1.1,0.1-1.6C25.6,14.2,30.3,10,36,10c1.8,0,3.5,0.4,4.9,1.1c3.4,1.6,5.8,4.9,6.3,8.8C47.3,20.4,47.3,20.8,47.3,21.3z"/>
		<path class="st17" d="M47.3,21.3c0,0.4,0,0.8-0.1,1.2c-1.1,0.1-2.1,0.1-3.1,0.1c-6.3,0-10.1-1.6-12.2-3.1
			c-0.9,0.7-2.1,1.3-3.4,1.8c-1.8,0.6-3.3,0.9-3.3,0.9c-0.2,0-0.3,0-0.5,0c0,0-0.1,0-0.1,0c0-0.3,0-0.6,0-1c0-0.6,0-1.1,0.1-1.6
			C25.6,14.2,30.3,10,36,10c1.8,0,3.5,0.4,4.9,1.1c3.4,1.6,5.8,4.9,6.3,8.8C47.3,20.4,47.3,20.8,47.3,21.3z"/>
		<path class="st18" d="M47.3,19.9c-11.8,1-15.3-3.9-15.3-3.9c-1.8,2.7-7.1,3.6-7.1,3.6C25.6,14.2,30.3,10,36,10
			c1.8,0,3.5,0.4,4.9,1.1C44.3,12.7,46.8,16,47.3,19.9z"/>
		<rect x="24.7" y="43.4" class="st19" width="22.7" height="13.1"/>
		<rect x="24.7" y="53" class="st20" width="22.7" height="3.5"/>
		<rect x="11.8" y="56.4" class="st18" width="48.5" height="5.6"/>
		<rect x="11.8" y="59.2" class="st21" width="48.5" height="2.8"/>
		<circle class="st22" cx="53.7" cy="53" r="3.5"/>
		<path class="st23" d="M57.2,53c0,1.9-1.5,3.4-3.4,3.4c-1.9,0-3.5-1.5-3.5-3.4c0-0.5,0.1-0.9,0.3-1.4c0.5,1.2,1.7,2.1,3.2,2.1
			c1.4,0,2.6-0.9,3.2-2.1C57.1,52,57.2,52.5,57.2,53z"/>
		<path class="st7" d="M60.2,55.5h-2.8c0.5-0.7,0.8-1.6,0.8-2.5c0-2.4-2-4.4-4.4-4.4c-0.4,0-0.8,0.1-1.2,0.2v-8.8
			c0-1.3-0.2-2.6-0.7-3.9c-0.2-0.5-0.8-0.8-1.3-0.6c-0.5,0.2-0.7,0.8-0.6,1.3c0.4,1,0.6,2.1,0.6,3.2v9.9c-0.8,0.8-1.3,1.9-1.3,3.1
			c0,0.9,0.3,1.8,0.8,2.5h-1.7V43.4c0-0.5-0.4-1-1-1h-6.5l-1.2-9.3c1.3-0.4,2.5-1,3.6-1.8c1.9,0.3,3.6,1.2,5,2.6
			c0.4,0.4,1,0.4,1.4,0c0.4-0.4,0.4-1,0-1.4c-1.3-1.4-2.9-2.3-4.6-2.9c2-2.2,3.3-5.1,3.3-8.4c0-0.5,0-1.1-0.1-1.6
			c-0.5-4.1-3.1-7.7-6.8-9.5C39.7,9.4,37.9,9,36,9c-3,0-5.9,1.1-8.1,3c-0.4,0.4-0.8,0.8-1.2,1.2c-1.6,1.8-2.6,4-2.9,6.3c0,0,0,0,0,0
			c-0.1,0.6-0.1,1.2-0.1,1.8c0,3.2,1.3,6.2,3.3,8.4c-4.4,1.3-7.5,5.4-7.5,10.2v3.5c0,0.5,0.4,1,1,1s1-0.4,1-1v-3.5
			c0-4.3,3.2-8,7.4-8.6c1.1,0.8,2.3,1.4,3.6,1.8l-1.2,9.3h-6.5c-0.5,0-1,0.4-1,1v6.2c0,0.5,0.4,1,1,1c0.5,0,1-0.4,1-1v-5.3H32
			c0,0,0,0,0,0c0,0,0,0,0,0H40c0,0,0,0,0,0c0,0,0,0,0,0h6.4v11.1H34.6c-0.5,0-1,0.4-1,1c0,0.5,0.4,1,1,1h24.7V61H12.7v-3.6h17.8
			c0.5,0,1-0.4,1-1c0-0.5-0.4-1-1-1h-4.9v-1.8c0-0.5-0.4-1-1-1c-0.5,0-1,0.4-1,1v1.8h-2.3v-8.2c0-0.5-0.4-1-1-1s-1,0.4-1,1v8.2h-7.7
			c-0.5,0-1,0.4-1,1V62c0,0.5,0.4,1,1,1h48.5c0.5,0,1-0.4,1-1v-5.6C61.2,55.9,60.8,55.5,60.2,55.5z M32,17.5
			c0.8,0.7,2.1,1.6,4.3,2.3c0.5,0.2,1.1-0.1,1.2-0.6c0.2-0.5-0.1-1.1-0.6-1.2c-3-1-4.2-2.5-4.2-2.5c-0.2-0.3-0.5-0.4-0.8-0.4
			c-0.3,0-0.6,0.2-0.8,0.4c-1,1.4-3.3,2.4-5,2.9c0-0.1,0.1-0.2,0.1-0.3c1.4-4.2,5.4-7.1,9.8-7.1c1.6,0,3.1,0.3,4.5,1
			c2.4,1.2,4.3,3.3,5.2,5.8c0.1,0.4,0.3,0.8,0.3,1.2c-2,0.1-3.9,0.1-5.5-0.2c-0.5-0.1-1,0.3-1.1,0.8c-0.1,0.5,0.3,1,0.8,1.1
			c1.2,0.2,2.5,0.2,3.9,0.2c0.7,0,1.4,0,2.2-0.1c0,0.1,0,0.3,0,0.4c0,5.7-4.7,10.4-10.4,10.4S25.6,27,25.6,21.3c0-0.3,0-0.6,0-0.8
			C27.1,20.2,30.1,19.3,32,17.5z M34.3,33.5c0.6,0.1,1.1,0.1,1.7,0.1c0.6,0,1.1,0,1.7-0.1l1.2,8.9h-5.7L34.3,33.5z M51.3,53
			c0-1.4,1.1-2.5,2.5-2.5s2.5,1.1,2.5,2.5s-1.1,2.5-2.5,2.5S51.3,54.3,51.3,53z"/>
		<path class="st7" d="M37.8,50.9c0.5,0,1-0.4,1-1c0-0.5-0.4-1-1-1H34c-0.5,0-1,0.4-1,1c0,0.5,0.4,1,1,1H37.8z"/>
		<circle class="st7" cx="31.5" cy="24.9" r="1.4"/>
		<circle class="st7" cx="40.4" cy="24.9" r="1.4"/>
	</g>
</g>
</svg>
